{
	"msg": 200,
	"data": {
		"UBER": {
			"name": "uber",
			"type": "taxi",
			"category": "travel"
		},
		"ZOMATO": {
			"name": "zomato",
			"type": "food",
			"category": "leisure"
		},
		"IRCTC": {
			"name": "IRCTC",
			"type": "train",
			"category": "travel"
		},
		"AMAZON":{
			"name": "amazon",
			"type": "online",
			"category": "shopping"
		},
		"ZERODHA":{
			"name" : "zerodha",
			"type": "investment",
			"category": "savings"
		}

	}
}